[{"patrimonio_humanidad_id":22,"patrimonio_humanidad_nombre":"Pinturas Rupestres de la Sierra de San Francisco","patrimonio_humanidad_ano_inscripcion":1993,"pagina_web":"http://www.patrimonio-mexico.inah.gob.mx/","email":"","gmaps_latitud":0.00000,"gmaps_longitud":0.00000,"estado_id":3,"municipio_id":2,"localidad_id":1,"nom_ent":"Baja California Sur","nom_mun":"Mulegé","nom_loc":"Santa Rosalía","link_sic":"http://sic.gob.mx/ficha.php?table=patrimonio_humanidad&table_id=22","fecha_mod":"2010-11-09T14:25:40-06:00"}, 
 {"patrimonio_humanidad_id":18,"patrimonio_humanidad_nombre":"Santuario de Ballenas en Lagunas de Vizcaíno ","patrimonio_humanidad_ano_inscripcion":1993,"pagina_web":"http://www.patrimonio-mexico.inah.gob.mx/","email":"","gmaps_latitud":27.79222,"gmaps_longitud":-114.22778,"estado_id":3,"municipio_id":2,"localidad_id":66,"nom_ent":"Baja California Sur","nom_mun":"Mulegé","nom_loc":"Guerrero Negro","link_sic":"http://sic.gob.mx/ficha.php?table=patrimonio_humanidad&table_id=18","fecha_mod":"2016-08-23T18:30:42-05:00"}, 
 {"patrimonio_humanidad_id":24,"patrimonio_humanidad_nombre":"Islas y Áreas protegidas del Golfo de California ","patrimonio_humanidad_ano_inscripcion":2005,"pagina_web":"http://www.patrimonio-mexico.inah.gob.mx/","email":"","gmaps_latitud":27.35379,"gmaps_longitud":-112.06243,"estado_id":3,"municipio_id":8,"localidad_id":1,"nom_ent":"Baja California Sur","nom_mun":"Los Cabos","nom_loc":"San José del Cabo","link_sic":"http://sic.gob.mx/ficha.php?table=patrimonio_humanidad&table_id=24","fecha_mod":"2016-08-23T18:28:41-05:00"}, 
 {"patrimonio_humanidad_id":20,"patrimonio_humanidad_nombre":"Zonas de Monumentos Históricos, Ciudad Fortificada de Campeche ","patrimonio_humanidad_ano_inscripcion":1999,"pagina_web":"http://www.patrimonio-mexico.inah.gob.mx/","email":"","gmaps_latitud":0.00000,"gmaps_longitud":0.00000,"estado_id":4,"municipio_id":2,"localidad_id":1,"nom_ent":"Campeche","nom_mun":"Campeche","nom_loc":"San Francisco de Campeche","link_sic":"http://sic.gob.mx/ficha.php?table=patrimonio_humanidad&table_id=20","fecha_mod":"2017-03-16T11:17:16-06:00"}, 
 {"patrimonio_humanidad_id":19,"patrimonio_humanidad_nombre":"Antigua Ciudad Maya y los bosques tropicales protegidos de Calakmul","patrimonio_humanidad_ano_inscripcion":2002,"pagina_web":"http://www.patrimonio-mexico.inah.gob.mx/","email":"","gmaps_latitud":18.10884,"gmaps_longitud":-89.80499,"estado_id":4,"municipio_id":10,"localidad_id":0,"nom_ent":"Campeche","nom_mun":"Calakmul","nom_loc":"","link_sic":"http://sic.gob.mx/ficha.php?table=patrimonio_humanidad&table_id=19","fecha_mod":"2014-06-26T17:30:29-05:00"}, 
 {"patrimonio_humanidad_id":39,"patrimonio_humanidad_nombre":"Archipiélago de Revillagigedo","patrimonio_humanidad_ano_inscripcion":2016,"pagina_web":"http://whc.unesco.org/en/list/1510","email":"","gmaps_latitud":19.05182,"gmaps_longitud":-110.88504,"estado_id":6,"municipio_id":0,"localidad_id":0,"nom_ent":"Colima","nom_mun":"","nom_loc":"","link_sic":"http://sic.gob.mx/ficha.php?table=patrimonio_humanidad&table_id=39","fecha_mod":"2016-11-23T13:07:23-06:00"}, 
 {"patrimonio_humanidad_id":14,"patrimonio_humanidad_nombre":"Ciudad Prehispánica y Parque Nacional de Palenque","patrimonio_humanidad_ano_inscripcion":1987,"pagina_web":"http://www.patrimonio-mexico.inah.gob.mx/","email":"","gmaps_latitud":17.48397,"gmaps_longitud":-92.04685,"estado_id":7,"municipio_id":65,"localidad_id":308,"nom_ent":"Chiapas","nom_mun":"Palenque","nom_loc":"Ejido Palenque","link_sic":"http://sic.gob.mx/ficha.php?table=patrimonio_humanidad&table_id=14","fecha_mod":"2016-02-11T22:05:25-06:00"}, 
 {"patrimonio_humanidad_id":15,"patrimonio_humanidad_nombre":"Zona de Monumentos Arqueológicos de Paquimé","patrimonio_humanidad_ano_inscripcion":1998,"pagina_web":"http://www.patrimonio-mexico.inah.gob.mx/","email":"","gmaps_latitud":0.00000,"gmaps_longitud":0.00000,"estado_id":8,"municipio_id":13,"localidad_id":1,"nom_ent":"Chihuahua","nom_mun":"Casas Grandes","nom_loc":"Casas Grandes","link_sic":"http://sic.gob.mx/ficha.php?table=patrimonio_humanidad&table_id=15","fecha_mod":"2010-07-27T13:22:44-05:00"}, 
 {"patrimonio_humanidad_id":31,"patrimonio_humanidad_nombre":"Campus Central de Ciudad Universitaria de la UNAM ","patrimonio_humanidad_ano_inscripcion":2007,"pagina_web":"http://whc.unesco.org/en/list/1250","email":"","gmaps_latitud":0.00000,"gmaps_longitud":0.00000,"estado_id":9,"municipio_id":3,"localidad_id":1,"nom_ent":"Ciudad de México","nom_mun":"Coyoacán","nom_loc":"Coyoacán","link_sic":"http://sic.gob.mx/ficha.php?table=patrimonio_humanidad&table_id=31","fecha_mod":"2015-07-06T11:43:21-05:00"}, 
 {"patrimonio_humanidad_id":16,"patrimonio_humanidad_nombre":"Centro Histórico de la Ciudad de México y Xochimilco","patrimonio_humanidad_ano_inscripcion":1987,"pagina_web":"http://www.patrimonio-mexico.inah.gob.mx/","email":"","gmaps_latitud":0.00000,"gmaps_longitud":0.00000,"estado_id":9,"municipio_id":15,"localidad_id":1,"nom_ent":"Ciudad de México","nom_mun":"Cuauhtémoc","nom_loc":"Cuauhtémoc","link_sic":"http://sic.gob.mx/ficha.php?table=patrimonio_humanidad&table_id=16","fecha_mod":"2010-11-09T16:10:31-06:00"}, 
 {"patrimonio_humanidad_id":25,"patrimonio_humanidad_nombre":"Casa y Estudio de Luis Barragán","patrimonio_humanidad_ano_inscripcion":2004,"pagina_web":"http://www.casaluisbarragan.org","email":"casabarragan@prodigy.net.mx","gmaps_latitud":0.00000,"gmaps_longitud":0.00000,"estado_id":9,"municipio_id":16,"localidad_id":1,"nom_ent":"Ciudad de México","nom_mun":"Miguel Hidalgo","nom_loc":"Miguel Hidalgo","link_sic":"http://sic.gob.mx/ficha.php?table=patrimonio_humanidad&table_id=25","fecha_mod":"2010-07-27T13:41:21-05:00"}, 
 {"patrimonio_humanidad_id":34,"patrimonio_humanidad_nombre":"Villa Protectora de San Miguel el Grande y el Santuario de Jesús Nazareno de Atotonilco","patrimonio_humanidad_ano_inscripcion":2008,"pagina_web":"http://www.patrimonio-mexico.inah.gob.mx/index.php","email":"","gmaps_latitud":21.00509,"gmaps_longitud":-100.79414,"estado_id":11,"municipio_id":3,"localidad_id":1,"nom_ent":"Guanajuato","nom_mun":"San Miguel de Allende","nom_loc":"San Miguel de Allende","link_sic":"http://sic.gob.mx/ficha.php?table=patrimonio_humanidad&table_id=34","fecha_mod":"2017-10-25T16:11:32-05:00"}, 
 {"patrimonio_humanidad_id":36,"patrimonio_humanidad_nombre":"Camino Real de Tierra Adentro","patrimonio_humanidad_ano_inscripcion":2010,"pagina_web":"http://www.patrimonio-mexico.inah.gob.mx/","email":"","gmaps_latitud":0.00000,"gmaps_longitud":0.00000,"estado_id":11,"municipio_id":15,"localidad_id":0,"nom_ent":"Guanajuato","nom_mun":"Guanajuato","nom_loc":"","link_sic":"http://sic.gob.mx/ficha.php?table=patrimonio_humanidad&table_id=36","fecha_mod":"2017-10-25T15:08:16-05:00"}, 
 {"patrimonio_humanidad_id":1,"patrimonio_humanidad_nombre":"Ciudad Histórica de Guanajuato y sus Minas Adyacentes","patrimonio_humanidad_ano_inscripcion":1998,"pagina_web":"http://www.patrimonio-mexico.inah.gob.mx/","email":"","gmaps_latitud":0.00000,"gmaps_longitud":0.00000,"estado_id":11,"municipio_id":15,"localidad_id":1,"nom_ent":"Guanajuato","nom_mun":"Guanajuato","nom_loc":"Guanajuato","link_sic":"http://sic.gob.mx/ficha.php?table=patrimonio_humanidad&table_id=1","fecha_mod":"2010-07-27T14:52:06-05:00"}, 
 {"patrimonio_humanidad_id":2,"patrimonio_humanidad_nombre":"Hospicio Cabañas","patrimonio_humanidad_ano_inscripcion":1997,"pagina_web":"http://www.patrimonio-mexico.inah.gob.mx/pamu_new/htme/navegacion.html","email":"","gmaps_latitud":0.00000,"gmaps_longitud":0.00000,"estado_id":14,"municipio_id":39,"localidad_id":1,"nom_ent":"Jalisco","nom_mun":"Guadalajara","nom_loc":"Guadalajara","link_sic":"http://sic.gob.mx/ficha.php?table=patrimonio_humanidad&table_id=2","fecha_mod":"2010-07-27T15:17:55-05:00"}, 
 {"patrimonio_humanidad_id":26,"patrimonio_humanidad_nombre":"Paisaje Agavero y las Antiguas Instalaciones Industriales","patrimonio_humanidad_ano_inscripcion":2006,"pagina_web":"","email":"","gmaps_latitud":0.00000,"gmaps_longitud":0.00000,"estado_id":14,"municipio_id":94,"localidad_id":1,"nom_ent":"Jalisco","nom_mun":"Tequila","nom_loc":"Tequila","link_sic":"http://sic.gob.mx/ficha.php?table=patrimonio_humanidad&table_id=26","fecha_mod":"2018-07-10T05:59:15-05:00"}, 
 {"patrimonio_humanidad_id":38,"patrimonio_humanidad_nombre":"Acueducto del Padre Tembleque","patrimonio_humanidad_ano_inscripcion":2015,"pagina_web":"http://whc.unesco.org/en/list/1463","email":"","gmaps_latitud":19.83527,"gmaps_longitud":-98.66256,"estado_id":15,"municipio_id":65,"localidad_id":0,"nom_ent":"México","nom_mun":"Otumba","nom_loc":"","link_sic":"http://sic.gob.mx/ficha.php?table=patrimonio_humanidad&table_id=38","fecha_mod":"2015-07-06T18:14:29-05:00"}, 
 {"patrimonio_humanidad_id":17,"patrimonio_humanidad_nombre":"Ciudad Prehispánica de Teotihuacán","patrimonio_humanidad_ano_inscripcion":1987,"pagina_web":"http://www.patrimonio-mexico.inah.gob.mx/","email":"","gmaps_latitud":19.69383,"gmaps_longitud":-98.84584,"estado_id":15,"municipio_id":92,"localidad_id":1,"nom_ent":"México","nom_mun":"Teotihuacán","nom_loc":"Teotihuacán de Arista","link_sic":"http://sic.gob.mx/ficha.php?table=patrimonio_humanidad&table_id=17","fecha_mod":"2017-10-25T14:45:29-05:00"}, 
 {"patrimonio_humanidad_id":33,"patrimonio_humanidad_nombre":"Reserva de Biosfera de la Mariposa Monarca","patrimonio_humanidad_ano_inscripcion":2008,"pagina_web":"http://www.patrimonio-mexico.inah.gob.mx/","email":"","gmaps_latitud":19.60639,"gmaps_longitud":-100.24167,"estado_id":16,"municipio_id":5,"localidad_id":1,"nom_ent":"Michoacán de Ocampo","nom_mun":"Angangueo","nom_loc":"Mineral de Angangueo","link_sic":"http://sic.gob.mx/ficha.php?table=patrimonio_humanidad&table_id=33","fecha_mod":"2016-08-23T18:25:49-05:00"}, 
 {"patrimonio_humanidad_id":3,"patrimonio_humanidad_nombre":"Centro Histórico de Morelia","patrimonio_humanidad_ano_inscripcion":1991,"pagina_web":"http://www.patrimonio-mexico.inah.gob.mx/","email":"","gmaps_latitud":0.00000,"gmaps_longitud":0.00000,"estado_id":16,"municipio_id":53,"localidad_id":1,"nom_ent":"Michoacán de Ocampo","nom_mun":"Morelia","nom_loc":"Morelia","link_sic":"http://sic.gob.mx/ficha.php?table=patrimonio_humanidad&table_id=3","fecha_mod":"2010-07-27T15:32:46-05:00"}, 
 {"patrimonio_humanidad_id":4,"patrimonio_humanidad_nombre":"Monasterios del siglo XVI en las faldas del Volcán Popocatépetl (Morelos y Puebla)","patrimonio_humanidad_ano_inscripcion":1994,"pagina_web":"http://www.gobiernodigital.inah.gob.mx/mener/archivos/Sitios_patrimonio_mundial_2010.pdf","email":"","gmaps_latitud":0.00000,"gmaps_longitud":0.00000,"estado_id":17,"municipio_id":7,"localidad_id":1,"nom_ent":"Morelos","nom_mun":"Cuernavaca","nom_loc":"Cuernavaca","link_sic":"http://sic.gob.mx/ficha.php?table=patrimonio_humanidad&table_id=4","fecha_mod":"2011-08-24T12:06:50-05:00"}, 
 {"patrimonio_humanidad_id":23,"patrimonio_humanidad_nombre":"Zona de Monumentos Arqueológicos de Xochicalco","patrimonio_humanidad_ano_inscripcion":1999,"pagina_web":"http://www.patrimonio-mexico.inah.gob.mx/","email":"","gmaps_latitud":18.80388,"gmaps_longitud":-99.29709,"estado_id":17,"municipio_id":15,"localidad_id":1,"nom_ent":"Morelos","nom_mun":"Miacatlán","nom_loc":"Miacatlán","link_sic":"http://sic.gob.mx/ficha.php?table=patrimonio_humanidad&table_id=23","fecha_mod":"2018-06-24T09:08:24-05:00"}, 
 {"patrimonio_humanidad_id":21,"patrimonio_humanidad_nombre":"Centro Histórico de Oaxaca y Zona Arqueológica de Monte Albán","patrimonio_humanidad_ano_inscripcion":1987,"pagina_web":"http://www.patrimonio-mexico.inah.gob.mx/","email":"","gmaps_latitud":0.00000,"gmaps_longitud":0.00000,"estado_id":20,"municipio_id":67,"localidad_id":1,"nom_ent":"Oaxaca","nom_mun":"Oaxaca de Juárez","nom_loc":"Oaxaca de Juárez","link_sic":"http://sic.gob.mx/ficha.php?table=patrimonio_humanidad&table_id=21","fecha_mod":"2010-07-27T16:56:18-05:00"}, 
 {"patrimonio_humanidad_id":35,"patrimonio_humanidad_nombre":"Cuevas prehistóricas de Yagul y Mitla","patrimonio_humanidad_ano_inscripcion":2010,"pagina_web":"https://lugares.inah.gob.mx/zonas-arqueologicas/zonas/9286-cuevas-de-mitla-y-yagul.html","email":"","gmaps_latitud":0.00000,"gmaps_longitud":0.00000,"estado_id":20,"municipio_id":551,"localidad_id":1,"nom_ent":"Oaxaca","nom_mun":"Tlacolula de Matamoros","nom_loc":"Tlacolula de Matamoros","link_sic":"http://sic.gob.mx/ficha.php?table=patrimonio_humanidad&table_id=35","fecha_mod":"2018-07-03T07:25:06-05:00"}, 
 {"patrimonio_humanidad_id":5,"patrimonio_humanidad_nombre":"Centro Histórico de Puebla ","patrimonio_humanidad_ano_inscripcion":1987,"pagina_web":"http://www.patrimonio-mexico.inah.gob.mx/","email":"","gmaps_latitud":0.00000,"gmaps_longitud":0.00000,"estado_id":21,"municipio_id":114,"localidad_id":1,"nom_ent":"Puebla","nom_mun":"Puebla","nom_loc":"Heroica Puebla de Zaragoza","link_sic":"http://sic.gob.mx/ficha.php?table=patrimonio_humanidad&table_id=5","fecha_mod":"2015-04-21T13:12:03-05:00"}, 
 {"patrimonio_humanidad_id":40,"patrimonio_humanidad_nombre":"Valle de Tehuacán-Cuicatlán: hábitat originario de Mesoamérica","patrimonio_humanidad_ano_inscripcion":2018,"pagina_web":"http://www.patrimonio-mexico.inah.gob.mx/index.php","email":"","gmaps_latitud":18.21097,"gmaps_longitud":-97.40097,"estado_id":21,"municipio_id":156,"localidad_id":0,"nom_ent":"Puebla","nom_mun":"Tehuacán","nom_loc":"","link_sic":"http://sic.gob.mx/ficha.php?table=patrimonio_humanidad&table_id=40","fecha_mod":"2018-07-04T03:29:14-05:00"}, 
 {"patrimonio_humanidad_id":6,"patrimonio_humanidad_nombre":"Misiones Franciscanas de la Sierra Gorda","patrimonio_humanidad_ano_inscripcion":2003,"pagina_web":"http://www.patrimonio-mexico.inah.gob.mx/","email":"","gmaps_latitud":0.00000,"gmaps_longitud":0.00000,"estado_id":22,"municipio_id":10,"localidad_id":1,"nom_ent":"Querétaro","nom_mun":"Landa de Matamoros","nom_loc":"Landa de Matamoros","link_sic":"http://sic.gob.mx/ficha.php?table=patrimonio_humanidad&table_id=6","fecha_mod":"2010-07-27T17:11:45-05:00"}, 
 {"patrimonio_humanidad_id":7,"patrimonio_humanidad_nombre":"Zona de Monumentos Históricos de Querétaro","patrimonio_humanidad_ano_inscripcion":1996,"pagina_web":"http://www.patrimonio-mexico.inah.gob.mx","email":"","gmaps_latitud":0.00000,"gmaps_longitud":0.00000,"estado_id":22,"municipio_id":14,"localidad_id":1,"nom_ent":"Querétaro","nom_mun":"Querétaro","nom_loc":"Santiago de Querétaro","link_sic":"http://sic.gob.mx/ficha.php?table=patrimonio_humanidad&table_id=7","fecha_mod":"2016-10-27T12:05:52-05:00"}, 
 {"patrimonio_humanidad_id":8,"patrimonio_humanidad_nombre":"Reserva Ecológica de Sian Ka´an","patrimonio_humanidad_ano_inscripcion":1987,"pagina_web":"http://www.patrimonio-mexico.inah.gob.mx/","email":"","gmaps_latitud":19.38333,"gmaps_longitud":-87.79167,"estado_id":23,"municipio_id":2,"localidad_id":456,"nom_ent":"Quintana Roo","nom_mun":"Felipe Carrillo Puerto","nom_loc":"Punta Herrero","link_sic":"http://sic.gob.mx/ficha.php?table=patrimonio_humanidad&table_id=8","fecha_mod":"2016-08-23T18:32:55-05:00"}, 
 {"patrimonio_humanidad_id":37,"patrimonio_humanidad_nombre":"Reserva de la Biosfera El Pinacate y el Gran Desierto de Altar","patrimonio_humanidad_ano_inscripcion":2013,"pagina_web":"http://whc.unesco.org/en/list/1410","email":"","gmaps_latitud":32.00000,"gmaps_longitud":-113.91660,"estado_id":26,"municipio_id":55,"localidad_id":0,"nom_ent":"Sonora","nom_mun":"San Luis Río Colorado","nom_loc":"","link_sic":"http://sic.gob.mx/ficha.php?table=patrimonio_humanidad&table_id=37","fecha_mod":"2013-06-21T12:10:57-05:00"}, 
 {"patrimonio_humanidad_id":13,"patrimonio_humanidad_nombre":"Ciudad Prehispánica de El Tajín","patrimonio_humanidad_ano_inscripcion":1992,"pagina_web":"http://www.patrimonio-mexico.inah.gob.mx/","email":"","gmaps_latitud":0.00000,"gmaps_longitud":0.00000,"estado_id":30,"municipio_id":124,"localidad_id":107,"nom_ent":"Veracruz de Ignacio de la Llave","nom_mun":"Papantla","nom_loc":"El Tajín","link_sic":"http://sic.gob.mx/ficha.php?table=patrimonio_humanidad&table_id=13","fecha_mod":"2010-07-27T17:17:27-05:00"}, 
 {"patrimonio_humanidad_id":9,"patrimonio_humanidad_nombre":"Zona de Monumentos Históricos de Tlacotalpan","patrimonio_humanidad_ano_inscripcion":1998,"pagina_web":"http://www.patrimonio-mexico.inah.gob.mx/","email":"","gmaps_latitud":18.61518,"gmaps_longitud":-95.65684,"estado_id":30,"municipio_id":178,"localidad_id":1,"nom_ent":"Veracruz de Ignacio de la Llave","nom_mun":"Tlacotalpan","nom_loc":"Tlacotalpan","link_sic":"http://sic.gob.mx/ficha.php?table=patrimonio_humanidad&table_id=9","fecha_mod":"2010-07-27T17:19:05-05:00"}, 
 {"patrimonio_humanidad_id":11,"patrimonio_humanidad_nombre":"Ciudad Prehispánica de Uxmal ","patrimonio_humanidad_ano_inscripcion":1998,"pagina_web":"http://www.patrimonio-mexico.inah.gob.mx/","email":"","gmaps_latitud":20.36049,"gmaps_longitud":-89.77042,"estado_id":31,"municipio_id":66,"localidad_id":1,"nom_ent":"Yucatán","nom_mun":"Santa Elena","nom_loc":"Santa Elena","link_sic":"http://sic.gob.mx/ficha.php?table=patrimonio_humanidad&table_id=11","fecha_mod":"2015-04-10T18:48:17-05:00"}, 
 {"patrimonio_humanidad_id":10,"patrimonio_humanidad_nombre":"Ciudad Prehispánica de Chichén Itzá ","patrimonio_humanidad_ano_inscripcion":1996,"pagina_web":"http://www.patrimonio-mexico.inah.gob.mx/","email":"","gmaps_latitud":20.68314,"gmaps_longitud":-88.56927,"estado_id":31,"municipio_id":91,"localidad_id":6,"nom_ent":"Yucatán","nom_mun":"Tinum","nom_loc":"Pisté","link_sic":"http://sic.gob.mx/ficha.php?table=patrimonio_humanidad&table_id=10","fecha_mod":"2015-04-10T18:49:45-05:00"}, 
 {"patrimonio_humanidad_id":12,"patrimonio_humanidad_nombre":"Centro Histórico de Zacatecas","patrimonio_humanidad_ano_inscripcion":1993,"pagina_web":"http://www.patrimonio-mexico.inah.gob.mx/","email":"","gmaps_latitud":0.00000,"gmaps_longitud":0.00000,"estado_id":32,"municipio_id":56,"localidad_id":1,"nom_ent":"Zacatecas","nom_mun":"Zacatecas","nom_loc":"Zacatecas","link_sic":"http://sic.gob.mx/ficha.php?table=patrimonio_humanidad&table_id=12","fecha_mod":"2015-11-25T11:13:40-06:00"}]